ISIOP
…
0.4 Sukcesivno treniranje

0.5 Cross Validacija

# A tsibble: 120 x 5 [1M]
# Key:       .id, product_ID [4]
   product_ID    month Consumption label        .id
   <fct>         <mth>       <dbl> <chr>      <int>
 1 7999       2017 Jan         243 continuous     1
 2 7999       2017 Feb         243 continuous     1
 3 7999       2017 Mar        1710 continuous     1
 4 7999       2017 Apr        1110 continuous     1
 5 7999       2017 May         329 continuous     1
 6 7999       2017 Jun         497 continuous     1
 7 7999       2017 Jul         380 continuous     1
 8 7999       2017 Aug         499 continuous     1
 9 7999       2017 Sep         555 continuous     1
10 7999       2017 Oct         448 continuous     1
# … with 110 more rows
…
